…
    ## `summarise()` regrouping output by 'harvest', 'origin' (override with `.groups` argument)

``` r
(ht.avg)
```

    ## # A tibble: 102 x 6
    ## # Groups:   harvest, origin [21]
    ##    harvest origin spp   ht.2019 inc.2019     n
    ##    <chr>   <chr>  <chr>   <dbl>    <dbl> <int>
    ##  1 Boot    r      531      37.8    14.1     11
    ##  2 Boot    s      316      27.7    12.6      5
    ##  3 Boot    s      318      12.8     4.75     2
    ##  4 Boot    s      372      48.7    33.4     32
    ##  5 Boot    s      375      51.7    31.3      3
    ##  6 Boot    s      531      48.6     9.14    14
    ##  7 Boot    s      541      28.0    19.4     23
    ##  8 Boot    s      762      61      26        1
    ##  9 Boot    s      833      23.5     9.5      2
    ## 10 Boot    s      951      18      10        1
    ## # ... with 92 more rows
…
