…
``` r
regen.data <- input.data %>% 
  select(-other) %>%  # removes the column for "other"
  filter(!spp == "ush") %>%   #removes the row where species = "ush"
  replace(is.na(.), 0) %>% 
  arrange(harvest, location, point, spp) %>% 
  print(n=15)
```

    ## # A tibble: 926 x 17
    ##    harvest date  location point spp   origin radius.01 radius.other sup.seed01
    ##    <chr>   <chr> <chr>    <chr> <chr> <chr>      <dbl>        <dbl>      <dbl>
    ##  1 boot    2020~ interior 349   372   s            3.7            6          7
    ##  2 boot    2020~ interior 349   541   s            3.7            6          0
    ##  3 boot    2020~ interior 350   316   s            3.7            6          1
    ##  4 boot    2020~ interior 350   372   s            3.7            6          0
    ##  5 boot    2020~ interior 350   531   r            3.7            6          0
    ##  6 boot    2020~ interior 350   541   s            3.7            6          1
    ##  7 boot    2020~ interior 350   761   s            3.7            6          0
    ##  8 boot    2020~ interior 351   372   s            3.7            6          0
    ##  9 boot    2020~ interior 352   315   s            3.7            6          1
    ## 10 boot    2020~ interior 352   316   s            3.7            6          3
    ## 11 boot    2020~ interior 352   372   s            3.7            6          0
    ## 12 boot    2020~ interior 353   372   s            3.7            6          5
    ## 13 boot    2020~ interior 353   746   s            3.7            6          0
    ## 14 boot    2020~ interior 354   372   s            3.7            6          5
    ## 15 boot    2020~ interior 355   316   s            3.7            6         14
    ## # ... with 911 more rows, and 8 more variables: sup.seed02 <dbl>,
    ## #   sup.seed03 <dbl>, sup.sapl <dbl>, exp.seed01 <dbl>, exp.seed02 <dbl>,
    ## #   exp.seed03 <dbl>, exp.sapl <dbl>, top4 <dbl>
…
