…
# 3. retain variables for subsequent analysis
#  select(harvest, location, low.cov, invasive.cov, mid.cov, upper.cov,
#       ba, seedling.numb) %>%
  
  select(harvest, location, ba) %>%

# 4. group the remaining data by harvest name and interior vs. control
  group_by(harvest,location)

print(site)
```

    ## # A tibble: 174 x 3
    ## # Groups:   harvest, location [7]
    ##    harvest location    ba
    ##    <chr>   <chr>    <int>
    ##  1 Boot    interior    20
    ##  2 Boot    interior    10
    ##  3 Boot    interior    30
    ##  4 Boot    interior    30
    ##  5 Boot    interior    60
    ##  6 Boot    interior    30
    ##  7 Boot    interior     0
    ##  8 Boot    interior    40
    ##  9 Boot    interior    30
    ## 10 Boot    interior    20
    ## # ... with 164 more rows
…
